<?xml version="1.0" encoding="UTF-8" standalone="no" ?>
<!DOCTYPE svg PUBLIC "-//W3C//DTD SVG 1.1//EN" "http://www.w3.org/Graphics/SVG/1.1/DTD/svg11.dtd">
<svg xmlns="http://www.w3.org/2000/svg" xmlns:xlink="http://www.w3.org/1999/xlink" version="1.1" width="1080" height="1080" viewBox="0 0 1080 1080" xml:space="preserve">
<desc>Created with Fabric.js 5.2.4</desc>
<defs>
</defs>
<g transform="matrix(1 0 0 1 540 540)" id="d2641eef-86d0-4612-8464-a31d819d8373"  >
<rect style="stroke: none; stroke-width: 1; stroke-dasharray: none; stroke-linecap: butt; stroke-dashoffset: 0; stroke-linejoin: miter; stroke-miterlimit: 4; fill: rgb(255,255,255); fill-rule: nonzero; opacity: 1; visibility: hidden;" vector-effect="non-scaling-stroke"  x="-540" y="-540" rx="0" ry="0" width="1080" height="1080" />
</g>
<g transform="matrix(1 0 0 1 540 540)" id="0d231daa-1e24-4970-9d70-4871575fc335"  >
</g>
<g transform="matrix(4.2 0 0 4.2 540 522.26)"  >
<g style="" vector-effect="non-scaling-stroke"   >
		<g transform="matrix(1 0 0 1 0 0)" clip-path="url(#CLIPPATH_5)"  >
<clipPath id="CLIPPATH_5" >
	<rect transform="matrix(1 0 0 1 -4.87 0.04)" id="clip-path" x="-127.99" y="-127.99" rx="0" ry="0" width="255.98" height="255.98" />
</clipPath>
<path style="stroke: none; stroke-width: 1; stroke-dasharray: none; stroke-linecap: butt; stroke-dashoffset: 0; stroke-linejoin: miter; stroke-miterlimit: 4; fill: rgb(77,77,77); fill-rule: nonzero; opacity: 1;" vector-effect="non-scaling-stroke"  transform=" translate(-132.88, -127.97)" d="M 219.24 76 C 218.556002337877 76.00522722768272 217.92198884436425 75.6423881801905 217.58 75.05 L 188.7 25 C 188.3485183327891 24.39100542556234 187.70305447406596 24.01132080278402 187 24 L 69.18 24 C 68.49600233787699 23.99477277231728 67.86198884436426 24.357611819809506 67.52000000000001 24.95 L 37.52000000000001 76.95 L 8.6 127.05 C 8.264880949233705 127.64256793177668 8.264880949233705 128.36743206822334 8.6 128.96 L 37.5 179 L 67.5 231 C 67.84198884436425 231.59238818019048 68.47600233787698 231.9552272276827 69.16 231.95 L 187 231.95 C 187.68585190236766 231.94235879042927 188.31994796952793 231.58379256197554 188.68 231 L 217.6 181 C 217.94198884436423 180.40761181980952 218.576002337877 180.0447727723173 219.26 180.05 L 255.26 180.05 C 255.8328676180534 180.05 256.3822720699152 179.82242922481072 256.7873506473629 179.41735064736295 C 257.1924292248107 179.0122720699152 257.42 178.46286761805342 257.42 177.89000000000001 L 257.42 78.17 C 257.4227924737401 77.58840196748382 257.1909247257367 77.03025323766833 256.7768545575295 76.62182948084572 C 256.3627843893222 76.2134057240231 255.80150487712274 75.98922283809304 255.22 76 L 219.22 76 Z" stroke-linecap="round" />
</g>
		<g transform="matrix(1 0 0 1 -0.02 0.03)" clip-path="url(#CLIPPATH_6)"  >
<clipPath id="CLIPPATH_6" >
	<rect transform="matrix(1 0 0 1 -4.85 0.01)" id="clip-path" x="-127.99" y="-127.99" rx="0" ry="0" width="255.98" height="255.98" />
</clipPath>
<path style="stroke: none; stroke-width: 1; stroke-dasharray: none; stroke-linecap: butt; stroke-dashoffset: 0; stroke-linejoin: miter; stroke-miterlimit: 4; fill: none; fill-rule: nonzero; opacity: 1;" vector-effect="non-scaling-stroke"  transform=" translate(-132.86, -128)" d="M 255.23 76 L 39.22999999999999 76 C 38.55519816766333 76.01007089104512 37.93098403745057 76.3597812170077 37.56999999999999 76.93 C 37.56999999999999 76.93 37.56999999999999 76.93 37.56999999999999 76.93 L 36.49999999999999 78.78 L 23.22 101.75 L 8.61 127.06 C 8.262845474033027 127.65292333402368 8.262845474033027 128.3870766659763 8.61 128.98 L 11.78 134.48 L 37.51 179 C 37.84392039759117 179.6117182903487 38.48309871228707 179.99445979615464 39.18 180 L 255.26 180 C 256.4340714544026 179.98902689147744 257.38005127732254 179.03412273060547 257.38 177.86 L 257.38 78.18 C 257.3853266044324 77.60540419640313 257.1614818731997 77.05236850531222 256.7579886473238 76.64324514140083 C 256.3544954214479 76.23412177748943 255.8046144480296 76.00263559130633 255.23 76 Z" stroke-linecap="round" />
</g>
		<g transform="matrix(1 0 0 1 -106.68 -9.85)" clip-path="url(#CLIPPATH_7)"  >
<clipPath id="CLIPPATH_7" >
	<rect transform="matrix(1 0 0 1 101.81 9.88)" id="clip-path" x="-127.99" y="-127.99" rx="0" ry="0" width="255.98" height="255.98" />
</clipPath>
<path style="stroke: none; stroke-width: 1; stroke-dasharray: none; stroke-linecap: butt; stroke-dashoffset: 0; stroke-linejoin: miter; stroke-miterlimit: 4; fill: rgb(225,225,225); fill-rule: nonzero; opacity: 1;" vector-effect="non-scaling-stroke"  transform=" translate(-26.2, -118.13)" d="M 44.06 122.76 L 11.78 134.48 L 8.61 129 C 8.262845474033021 128.40707666597632 8.262845474033021 127.6729233340237 8.61 127.08 L 23.22 101.77 Z" stroke-linecap="round" />
</g>
		<g transform="matrix(1 0 0 1 113.86 13.44)" clip-path="url(#CLIPPATH_8)"  >
<clipPath id="CLIPPATH_8" >
	<rect transform="matrix(1 0 0 1 -118.74 -13.4)" id="clip-path" x="-127.99" y="-127.99" rx="0" ry="0" width="255.98" height="255.98" />
</clipPath>
<polygon style="stroke: none; stroke-width: 1; stroke-dasharray: none; stroke-linecap: butt; stroke-dashoffset: 0; stroke-linejoin: miter; stroke-miterlimit: 4; fill: rgb(200,200,200); fill-rule: nonzero; opacity: 1;" vector-effect="non-scaling-stroke"  points="-10.63,-9.3 10.63,-12.34 10.63,12.34 -10.63,-9.3 " />
</g>
		<g transform="matrix(1 0 0 1 111.06 28.08)" clip-path="url(#CLIPPATH_9)"  >
<clipPath id="CLIPPATH_9" >
	<rect transform="matrix(1 0 0 1 -115.93 -28.04)" id="clip-path" x="-127.99" y="-127.99" rx="0" ry="0" width="255.98" height="255.98" />
</clipPath>
<path style="stroke: none; stroke-width: 1; stroke-dasharray: none; stroke-linecap: butt; stroke-dashoffset: 0; stroke-linejoin: miter; stroke-miterlimit: 4; fill: rgb(194,194,194); fill-rule: nonzero; opacity: 1;" vector-effect="non-scaling-stroke"  transform=" translate(-243.94, -156.05)" d="M 236.11 132.11 L 257.38 153.75 L 257.38 177.85 C 257.38005127732254 179.02412273060546 256.4340714544026 179.97902689147742 255.26 179.98999999999998 L 230.5 179.98999999999998 Z" stroke-linecap="round" />
</g>
		<g transform="matrix(1 0 0 1 81.03 28.08)" clip-path="url(#CLIPPATH_10)"  >
<clipPath id="CLIPPATH_10" >
	<rect transform="matrix(1 0 0 1 -85.9 -28.04)" id="clip-path" x="-127.99" y="-127.99" rx="0" ry="0" width="255.98" height="255.98" />
</clipPath>
<polygon style="stroke: none; stroke-width: 1; stroke-dasharray: none; stroke-linecap: butt; stroke-dashoffset: 0; stroke-linejoin: miter; stroke-miterlimit: 4; fill: rgb(199,199,199); fill-rule: nonzero; opacity: 1;" vector-effect="non-scaling-stroke"  points="22.2,-23.94 16.59,23.94 -13.17,23.94 -22.2,2.22 22.2,-23.94 " />
</g>
		<g transform="matrix(1 0 0 1 113.86 -8.81)" clip-path="url(#CLIPPATH_11)"  >
<clipPath id="CLIPPATH_11" >
	<rect transform="matrix(1 0 0 1 -118.74 8.85)" id="clip-path" x="-127.99" y="-127.99" rx="0" ry="0" width="255.98" height="255.98" />
</clipPath>
<polygon style="stroke: none; stroke-width: 1; stroke-dasharray: none; stroke-linecap: butt; stroke-dashoffset: 0; stroke-linejoin: miter; stroke-miterlimit: 4; fill: rgb(206,206,206); fill-rule: nonzero; opacity: 1;" vector-effect="non-scaling-stroke"  points="-10.63,12.95 10.63,-12.95 10.63,9.91 -10.63,12.95 " />
</g>
		<g transform="matrix(1 0 0 1 105.84 -23.94)" clip-path="url(#CLIPPATH_12)"  >
<clipPath id="CLIPPATH_12" >
	<rect transform="matrix(1 0 0 1 -110.71 23.98)" id="clip-path" x="-127.99" y="-127.99" rx="0" ry="0" width="255.98" height="255.98" />
</clipPath>
<path style="stroke: none; stroke-width: 1; stroke-dasharray: none; stroke-linecap: butt; stroke-dashoffset: 0; stroke-linejoin: miter; stroke-miterlimit: 4; fill: rgb(211,211,211); fill-rule: nonzero; opacity: 1;" vector-effect="non-scaling-stroke"  transform=" translate(-238.72, -104.03)" d="M 257.38 78.17 L 257.38 106.17 L 236.10999999999999 132.07 L 220.06 76 L 255.22 76 C 255.794604445728 75.99999384208313 256.34552981537166 76.22893681825705 256.75089708177177 76.63618078496452 C 257.1562643481718 77.04342475167199 257.3826602058004 77.59540171215588 257.38 78.17 Z" stroke-linecap="round" />
</g>
		<g transform="matrix(1 0 0 1 57.97 41.16)" clip-path="url(#CLIPPATH_13)"  >
<clipPath id="CLIPPATH_13" >
	<rect transform="matrix(1 0 0 1 -62.84 -41.12)" id="clip-path" x="-127.99" y="-127.99" rx="0" ry="0" width="255.98" height="255.98" />
</clipPath>
<polygon style="stroke: none; stroke-width: 1; stroke-dasharray: none; stroke-linecap: butt; stroke-dashoffset: 0; stroke-linejoin: miter; stroke-miterlimit: 4; fill: rgb(198,198,198); fill-rule: nonzero; opacity: 1;" vector-effect="non-scaling-stroke"  points="9.89,10.86 -5.82,10.86 -9.89,5.03 0.86,-10.86 9.89,10.86 " />
</g>
		<g transform="matrix(1 0 0 1 73.78 -23.91)" clip-path="url(#CLIPPATH_14)"  >
<clipPath id="CLIPPATH_14" >
	<rect transform="matrix(1 0 0 1 -78.66 23.94)" id="clip-path" x="-127.99" y="-127.99" rx="0" ry="0" width="255.98" height="255.98" />
</clipPath>
<polygon style="stroke: none; stroke-width: 1; stroke-dasharray: none; stroke-linecap: butt; stroke-dashoffset: 0; stroke-linejoin: miter; stroke-miterlimit: 4; fill: rgb(213,213,213); fill-rule: nonzero; opacity: 1;" vector-effect="non-scaling-stroke"  points="29.44,28.05 -29.45,3.16 1.52,-28.05 13.39,-28.05 29.44,28.05 " />
</g>
		<g transform="matrix(1 0 0 1 73.78 4.77)" clip-path="url(#CLIPPATH_15)"  >
<clipPath id="CLIPPATH_15" >
	<rect transform="matrix(1 0 0 1 -78.66 -4.74)" id="clip-path" x="-127.99" y="-127.99" rx="0" ry="0" width="255.98" height="255.98" />
</clipPath>
<path style="stroke: none; stroke-width: 1; stroke-dasharray: none; stroke-linecap: butt; stroke-dashoffset: 0; stroke-linejoin: miter; stroke-miterlimit: 4; fill: rgb(208,208,208); fill-rule: nonzero; opacity: 1;" vector-effect="non-scaling-stroke"  transform=" translate(-206.67, -132.75)" d="M 177.22 107.22 L 191.71 158.26999999999998 L 236.11 132.10999999999999 Z" stroke-linecap="round" />
</g>
		<g transform="matrix(1 0 0 1 50.02 49.1)" clip-path="url(#CLIPPATH_16)"  >
<clipPath id="CLIPPATH_16" >
	<rect transform="matrix(1 0 0 1 -54.89 -49.06)" id="clip-path" x="-127.99" y="-127.99" rx="0" ry="0" width="255.98" height="255.98" />
</clipPath>
<polygon style="stroke: none; stroke-width: 1; stroke-dasharray: none; stroke-linecap: butt; stroke-dashoffset: 0; stroke-linejoin: miter; stroke-miterlimit: 4; fill: rgb(191,191,191); fill-rule: nonzero; opacity: 1;" vector-effect="non-scaling-stroke"  points="2.13,2.92 -2.13,2.92 -1.94,-2.91 2.13,2.92 " />
</g>
		<g transform="matrix(1 0 0 1 57.03 -36.35)" clip-path="url(#CLIPPATH_17)"  >
<clipPath id="CLIPPATH_17" >
	<rect transform="matrix(1 0 0 1 -61.9 36.39)" id="clip-path" x="-127.99" y="-127.99" rx="0" ry="0" width="255.98" height="255.98" />
</clipPath>
<polygon style="stroke: none; stroke-width: 1; stroke-dasharray: none; stroke-linecap: butt; stroke-dashoffset: 0; stroke-linejoin: miter; stroke-miterlimit: 4; fill: rgb(217,217,217); fill-rule: nonzero; opacity: 1;" vector-effect="non-scaling-stroke"  points="18.28,-15.6 -12.69,15.6 -18.28,-12.31 -6.32,-15.6 18.28,-15.6 " />
</g>
		<g transform="matrix(1 0 0 1 10.49 12.72)" clip-path="url(#CLIPPATH_18)"  >
<clipPath id="CLIPPATH_18" >
	<rect transform="matrix(1 0 0 1 -15.36 -12.68)" id="clip-path" x="-127.99" y="-127.99" rx="0" ry="0" width="255.98" height="255.98" />
</clipPath>
<path style="stroke: none; stroke-width: 1; stroke-dasharray: none; stroke-linecap: butt; stroke-dashoffset: 0; stroke-linejoin: miter; stroke-miterlimit: 4; fill: rgb(212,212,212); fill-rule: nonzero; opacity: 1;" vector-effect="non-scaling-stroke"  transform=" translate(-143.37, -140.69)" d="M 177.22 107.22 L 105.74 123.7 L 181 174.16 Z" stroke-linecap="round" />
</g>
		<g transform="matrix(1 0 0 1 51.6 12.72)" clip-path="url(#CLIPPATH_19)"  >
<clipPath id="CLIPPATH_19" >
	<rect transform="matrix(1 0 0 1 -56.48 -12.68)" id="clip-path" x="-127.99" y="-127.99" rx="0" ry="0" width="255.98" height="255.98" />
</clipPath>
<path style="stroke: none; stroke-width: 1; stroke-dasharray: none; stroke-linecap: butt; stroke-dashoffset: 0; stroke-linejoin: miter; stroke-miterlimit: 4; fill: rgb(208,208,208); fill-rule: nonzero; opacity: 1;" vector-effect="non-scaling-stroke"  transform=" translate(-184.49, -140.69)" d="M 177.22 107.22 L 181 174.16 L 191.75 158.26999999999998 Z" stroke-linecap="round" />
</g>
		<g transform="matrix(1 0 0 1 8.6 -26.47)" clip-path="url(#CLIPPATH_20)"  >
<clipPath id="CLIPPATH_20" >
	<rect transform="matrix(1 0 0 1 -13.47 26.5)" id="clip-path" x="-127.99" y="-127.99" rx="0" ry="0" width="255.98" height="255.98" />
</clipPath>
<path style="stroke: none; stroke-width: 1; stroke-dasharray: none; stroke-linecap: butt; stroke-dashoffset: 0; stroke-linejoin: miter; stroke-miterlimit: 4; fill: rgb(217,217,217); fill-rule: nonzero; opacity: 1;" vector-effect="non-scaling-stroke"  transform=" translate(-141.48, -101.5)" d="M 171.63 79.31 L 105.74 123.7 L 177.22 107.22 Z" stroke-linecap="round" />
</g>
		<g transform="matrix(1 0 0 1 -57.98 23.4)" clip-path="url(#CLIPPATH_21)"  >
<clipPath id="CLIPPATH_21" >
	<rect transform="matrix(1 0 0 1 53.11 -23.37)" id="clip-path" x="-127.99" y="-127.99" rx="0" ry="0" width="255.98" height="255.98" />
</clipPath>
<polygon style="stroke: none; stroke-width: 1; stroke-dasharray: none; stroke-linecap: butt; stroke-dashoffset: 0; stroke-linejoin: miter; stroke-miterlimit: 4; fill: rgb(216,216,216); fill-rule: nonzero; opacity: 1;" vector-effect="non-scaling-stroke"  points="30.84,-27.67 -0.14,28.62 -17.79,28.62 -30.84,-28.61 30.84,-27.67 " />
</g>
		<g transform="matrix(1 0 0 1 -77.66 -28.59)" clip-path="url(#CLIPPATH_22)"  >
<clipPath id="CLIPPATH_22" >
	<rect transform="matrix(1 0 0 1 72.79 28.63)" id="clip-path" x="-127.99" y="-127.99" rx="0" ry="0" width="255.98" height="255.98" />
</clipPath>
<path style="stroke: none; stroke-width: 1; stroke-dasharray: none; stroke-linecap: butt; stroke-dashoffset: 0; stroke-linejoin: miter; stroke-miterlimit: 4; fill: rgb(226,226,226); fill-rule: nonzero; opacity: 1;" vector-effect="non-scaling-stroke"  transform=" translate(-55.22, -99.38)" d="M 74 76 L 44.06 122.76 L 36.44 78.83 L 37.51 77 C 37.51 77 37.51 77 37.51 77 C 37.855963434731464 76.39998976684615 38.48773359890073 76.02168427931963 39.18 76 L 74 76 Z" stroke-linecap="round" />
</g>
		<g transform="matrix(1 0 0 1 -98.44 23.41)" clip-path="url(#CLIPPATH_23)"  >
<clipPath id="CLIPPATH_23" >
	<rect transform="matrix(1 0 0 1 93.56 -23.37)" id="clip-path" x="-127.99" y="-127.99" rx="0" ry="0" width="255.98" height="255.98" />
</clipPath>
<path style="stroke: none; stroke-width: 1; stroke-dasharray: none; stroke-linecap: butt; stroke-dashoffset: 0; stroke-linejoin: miter; stroke-miterlimit: 4; fill: rgb(216,216,216); fill-rule: nonzero; opacity: 1;" vector-effect="non-scaling-stroke"  transform=" translate(-34.45, -151.38)" d="M 57.11 180 L 39.18 180 C 38.48309871228707 179.99445979615464 37.84392039759117 179.6117182903487 37.51 179 L 11.78 134.48 L 44.06 122.75999999999999 Z" stroke-linecap="round" />
</g>
		<g transform="matrix(1 0 0 1 -99.24 -27.18)" clip-path="url(#CLIPPATH_24)"  >
<clipPath id="CLIPPATH_24" >
	<rect transform="matrix(1 0 0 1 94.37 27.21)" id="clip-path" x="-127.99" y="-127.99" rx="0" ry="0" width="255.98" height="255.98" />
</clipPath>
<polygon style="stroke: none; stroke-width: 1; stroke-dasharray: none; stroke-linecap: butt; stroke-dashoffset: 0; stroke-linejoin: miter; stroke-miterlimit: 4; fill: rgb(228,228,228); fill-rule: nonzero; opacity: 1;" vector-effect="non-scaling-stroke"  points="10.42,21.97 -10.42,0.94 2.8,-21.97 10.42,21.97 " />
</g>
		<g transform="matrix(1 0 0 1 -3.97 -28.11)" clip-path="url(#CLIPPATH_25)"  >
<clipPath id="CLIPPATH_25" >
	<rect transform="matrix(1 0 0 1 -0.91 28.15)" id="clip-path" x="-127.99" y="-127.99" rx="0" ry="0" width="255.98" height="255.98" />
</clipPath>
<polygon style="stroke: none; stroke-width: 1; stroke-dasharray: none; stroke-linecap: butt; stroke-dashoffset: 0; stroke-linejoin: miter; stroke-miterlimit: 4; fill: rgb(222,222,222); fill-rule: nonzero; opacity: 1;" vector-effect="non-scaling-stroke"  points="9.49,-23.84 -11.13,-23.84 -42.71,-23.84 -23.17,23.84 42.72,-20.55 22.86,-23.84 9.49,-23.84 " />
</g>
		<g transform="matrix(1 0 0 1 -57.98 -28.11)" clip-path="url(#CLIPPATH_26)"  >
<clipPath id="CLIPPATH_26" >
	<rect transform="matrix(1 0 0 1 53.11 28.15)" id="clip-path" x="-127.99" y="-127.99" rx="0" ry="0" width="255.98" height="255.98" />
</clipPath>
<polygon style="stroke: none; stroke-width: 1; stroke-dasharray: none; stroke-linecap: butt; stroke-dashoffset: 0; stroke-linejoin: miter; stroke-miterlimit: 4; fill: rgb(222,222,222); fill-rule: nonzero; opacity: 1;" vector-effect="non-scaling-stroke"  points="3.16,-23.84 -0.92,-23.84 -30.84,22.9 30.84,23.84 11.3,-23.84 3.16,-23.84 " />
</g>
		<g transform="matrix(1 0 0 1 40.91 49.1)" clip-path="url(#CLIPPATH_27)"  >
<clipPath id="CLIPPATH_27" >
	<rect transform="matrix(1 0 0 1 -45.78 -49.06)" id="clip-path" x="-127.99" y="-127.99" rx="0" ry="0" width="255.98" height="255.98" />
</clipPath>
<polygon style="stroke: none; stroke-width: 1; stroke-dasharray: none; stroke-linecap: butt; stroke-dashoffset: 0; stroke-linejoin: miter; stroke-miterlimit: 4; fill: rgb(197,197,197); fill-rule: nonzero; opacity: 1;" vector-effect="non-scaling-stroke"  points="-7.17,2.92 4.33,2.92 6.98,2.92 7.17,-2.91 -7.17,2.92 " />
</g>
		<g transform="matrix(1 0 0 1 10.47 23.87)" clip-path="url(#CLIPPATH_28)"  >
<clipPath id="CLIPPATH_28" >
	<rect transform="matrix(1 0 0 1 -15.34 -23.84)" id="clip-path" x="-127.99" y="-127.99" rx="0" ry="0" width="255.98" height="255.98" />
</clipPath>
<polygon style="stroke: none; stroke-width: 1; stroke-dasharray: none; stroke-linecap: butt; stroke-dashoffset: 0; stroke-linejoin: miter; stroke-miterlimit: 4; fill: rgb(208,208,208); fill-rule: nonzero; opacity: 1;" vector-effect="non-scaling-stroke"  points="37.61,22.31 -37.61,-28.14 -24.06,28.15 -4.95,28.15 23.27,28.15 37.61,22.31 " />
</g>
		<g transform="matrix(1 0 0 1 -35.86 23.87)" clip-path="url(#CLIPPATH_29)"  >
<clipPath id="CLIPPATH_29" >
	<rect transform="matrix(1 0 0 1 30.98 -23.84)" id="clip-path" x="-127.99" y="-127.99" rx="0" ry="0" width="255.98" height="255.98" />
</clipPath>
<polygon style="stroke: none; stroke-width: 1; stroke-dasharray: none; stroke-linecap: butt; stroke-dashoffset: 0; stroke-linejoin: miter; stroke-miterlimit: 4; fill: rgb(209,209,209); fill-rule: nonzero; opacity: 1;" vector-effect="non-scaling-stroke"  points="-22.27,28.15 -18.97,28.15 20.75,28.15 22.27,28.15 8.71,-28.14 -22.27,28.15 " />
</g>
		<g transform="matrix(1 0 0 1 44.73 -50.31)" clip-path="url(#CLIPPATH_30)"  >
<clipPath id="CLIPPATH_30" >
	<rect transform="matrix(1 0 0 1 -49.6 50.34)" id="clip-path" x="-127.99" y="-127.99" rx="0" ry="0" width="255.98" height="255.98" />
</clipPath>
<polygon style="stroke: none; stroke-width: 1; stroke-dasharray: none; stroke-linecap: butt; stroke-dashoffset: 0; stroke-linejoin: miter; stroke-miterlimit: 4; fill: rgb(221,221,221); fill-rule: nonzero; opacity: 1;" vector-effect="non-scaling-stroke"  points="-5.78,-1.64 -5.98,1.65 5.98,-1.64 0.51,-1.64 -5.78,-1.64 " />
</g>
		<g transform="matrix(1 0 0 1 28.82 -50.31)" clip-path="url(#CLIPPATH_31)"  >
<clipPath id="CLIPPATH_31" >
	<rect transform="matrix(1 0 0 1 -33.69 50.34)" id="clip-path" x="-127.99" y="-127.99" rx="0" ry="0" width="255.98" height="255.98" />
</clipPath>
<polygon style="stroke: none; stroke-width: 1; stroke-dasharray: none; stroke-linecap: butt; stroke-dashoffset: 0; stroke-linejoin: miter; stroke-miterlimit: 4; fill: rgb(227,227,227); fill-rule: nonzero; opacity: 1;" vector-effect="non-scaling-stroke"  points="-9.93,-1.64 9.93,1.65 8.09,-1.64 -9.93,-1.64 " />
</g>
		<g transform="matrix(1 0 0 1 37.93 -50.31)" clip-path="url(#CLIPPATH_32)"  >
<clipPath id="CLIPPATH_32" >
	<rect transform="matrix(1 0 0 1 -42.8 50.34)" id="clip-path" x="-127.99" y="-127.99" rx="0" ry="0" width="255.98" height="255.98" />
</clipPath>
<polygon style="stroke: none; stroke-width: 1; stroke-dasharray: none; stroke-linecap: butt; stroke-dashoffset: 0; stroke-linejoin: miter; stroke-miterlimit: 4; fill: rgb(226,226,226); fill-rule: nonzero; opacity: 1;" vector-effect="non-scaling-stroke"  points="-1.02,-1.64 0.82,1.65 1.02,-1.64 -1.02,-1.64 " />
</g>
		<g transform="matrix(1 0 0 1 -40.01 -34.44)" clip-path="url(#CLIPPATH_33)"  >
<clipPath id="CLIPPATH_33" >
	<rect transform="matrix(1 0 0 1 35.13 34.48)" id="clip-path" x="-127.99" y="-127.99" rx="0" ry="0" width="255.98" height="255.98" />
</clipPath>
<path style="stroke: none; stroke-width: 1; stroke-dasharray: none; stroke-linecap: butt; stroke-dashoffset: 0; stroke-linejoin: miter; stroke-miterlimit: 4; fill: rgb(0,184,227); fill-rule: nonzero; opacity: 1;" vector-effect="non-scaling-stroke"  transform=" translate(-92.88, -93.53)" d="M 117.58 76.91 L 88.52 127.24 C 88.38157340752609 127.4910936586379 88.30930666850459 127.77327806815045 88.31 128.06 L 68 128.06 L 107.91 59 C 108.1549861891628 59.137105134792115 108.35872740297307 59.33739310769035 108.5 59.58 L 108.55 59.629999999999995 L 117.55 75.33 C 117.81237772956527 75.82149065901672 117.82353113749063 76.40890347641893 117.58 76.91 Z" stroke-linecap="round" />
</g>
		<g transform="matrix(1 0 0 1 -40 34.67)" clip-path="url(#CLIPPATH_34)"  >
<clipPath id="CLIPPATH_34" >
	<rect transform="matrix(1 0 0 1 35.13 -34.64)" id="clip-path" x="-127.99" y="-127.99" rx="0" ry="0" width="255.98" height="255.98" />
</clipPath>
<path style="stroke: none; stroke-width: 1; stroke-dasharray: none; stroke-linecap: butt; stroke-dashoffset: 0; stroke-linejoin: miter; stroke-miterlimit: 4; fill: rgb(51,198,233); fill-rule: nonzero; opacity: 1;" vector-effect="non-scaling-stroke"  transform=" translate(-92.88, -162.65)" d="M 117.55 181 L 108.55 196.63 C 108.39688263604302 196.8700824602956 108.18749278588346 197.06917444897192 107.94 197.21 L 68 128.08 L 68 128.08 L 88.31 128.08 C 88.30146938289909 128.35559406020474 88.36708673170433 128.6284240894476 88.5 128.87 C 88.49237900077244 128.8995160030898 88.49237900077244 128.93048399691023 88.5 128.96 L 117.5 179.25 C 117.83884134606697 179.7792530344617 117.85807022444833 180.4522637778093 117.55 181 Z" stroke-linecap="round" />
</g>
		<g transform="matrix(1 0 0 1 -54.8 -25.9)" clip-path="url(#CLIPPATH_35)"  >
<clipPath id="CLIPPATH_35" >
	<rect transform="matrix(1 0 0 1 49.93 25.93)" id="clip-path" x="-127.99" y="-127.99" rx="0" ry="0" width="255.98" height="255.98" />
</clipPath>
<path style="stroke: none; stroke-width: 1; stroke-dasharray: none; stroke-linecap: butt; stroke-dashoffset: 0; stroke-linejoin: miter; stroke-miterlimit: 4; fill: rgb(0,138,170); fill-rule: nonzero; opacity: 1;" vector-effect="non-scaling-stroke"  transform=" translate(-78.08, -102.08)" d="M 107.91 59 L 68 128.06 L 68 128.06 L 68 128.06 L 58 145.4 L 48.45 128.84 C 48.317086731704336 128.5984240894476 48.251469382899096 128.32559406020474 48.260000000000005 128.05 C 48.25930666850459 127.76327806815047 48.3315734075261 127.48109365863792 48.470000000000006 127.23000000000002 L 58.14000000000001 110.48000000000002 L 87.54 59.62 C 87.83638255364684 59.09008286344006 88.3928895308239 58.75846569210852 89 58.75 L 107 58.75 C 107.32023510133317 58.750432431217185 107.63449051225635 58.83676633531696 107.91 59 Z" stroke-linecap="round" />
</g>
		<g transform="matrix(1 0 0 1 -49.93 34.76)" clip-path="url(#CLIPPATH_36)"  >
<clipPath id="CLIPPATH_36" >
	<rect transform="matrix(1 0 0 1 45.05 -34.72)" id="clip-path" x="-127.99" y="-127.99" rx="0" ry="0" width="255.98" height="255.98" />
</clipPath>
<path style="stroke: none; stroke-width: 1; stroke-dasharray: none; stroke-linecap: butt; stroke-dashoffset: 0; stroke-linejoin: miter; stroke-miterlimit: 4; fill: rgb(0,184,227); fill-rule: nonzero; opacity: 1;" vector-effect="non-scaling-stroke"  transform=" translate(-82.95, -162.73)" d="M 107.91 197.16 C 107.64727596877248 197.30786507183194 107.3514612172374 197.3869783193355 107.05 197.39 L 89 197.39 C 88.38213648447206 197.3923198523257 87.81166054644973 197.0592231636818 87.51 196.51999999999998 L 60.69 150 L 58 145.4 L 68 128.07 Z" stroke-linecap="round" />
</g>
		<g transform="matrix(1 0 0 1 30.37 34.64)" clip-path="url(#CLIPPATH_37)"  >
<clipPath id="CLIPPATH_37" >
	<rect transform="matrix(1 0 0 1 -35.25 -34.6)" id="clip-path" x="-127.99" y="-127.99" rx="0" ry="0" width="255.98" height="255.98" />
</clipPath>
<path style="stroke: none; stroke-width: 1; stroke-dasharray: none; stroke-linecap: butt; stroke-dashoffset: 0; stroke-linejoin: miter; stroke-miterlimit: 4; fill: rgb(0,138,170); fill-rule: nonzero; opacity: 1;" vector-effect="non-scaling-stroke"  transform=" translate(-163.26, -162.61)" d="M 188.1 128.06 L 148.2 197.16 C 147.9624953737952 197.01314298071975 147.76089517621912 196.81495973564495 147.60999999999999 196.57999999999998 L 147.60999999999999 196.52999999999997 L 138.60999999999999 180.85999999999999 C 138.34678281681744 180.3556081557817 138.34678281681744 179.75439184421825 138.60999999999999 179.24999999999997 L 167.60999999999999 128.92999999999998 C 167.76738567644 128.66711757400495 167.8503438949527 128.36639403189645 167.85 128.05999999999997 L 188.1 128.05999999999997 Z" stroke-linecap="round" />
</g>
		<g transform="matrix(1 0 0 1 45.15 26.09)" clip-path="url(#CLIPPATH_38)"  >
<clipPath id="CLIPPATH_38" >
	<rect transform="matrix(1 0 0 1 -50.02 -26.05)" id="clip-path" x="-127.99" y="-127.99" rx="0" ry="0" width="255.98" height="255.98" />
</clipPath>
<path style="stroke: none; stroke-width: 1; stroke-dasharray: none; stroke-linecap: butt; stroke-dashoffset: 0; stroke-linejoin: miter; stroke-miterlimit: 4; fill: rgb(0,184,227); fill-rule: nonzero; opacity: 1;" vector-effect="non-scaling-stroke"  transform=" translate(-178.03, -154.06)" d="M 207.84 128.06 C 207.8403438949527 128.36639403189648 207.75738567644 128.66711757400498 207.6 128.93 L 168.54 196.58 C 168.22664368445706 197.07853273173305 167.67883484014666 197.3807720941112 167.09 197.38000000000002 L 149.09 197.38000000000002 C 148.7855457874333 197.3756991089685 148.48680289236572 197.29672110222648 148.22 197.15000000000003 L 188.12 128.05000000000004 L 198.12 110.74000000000004 L 207.61 127.19000000000004 C 207.76435429655524 127.453689059187 207.84387387415197 127.75448050487896 207.84 128.06 Z" stroke-linecap="round" />
</g>
		<g transform="matrix(1 0 0 1 30.34 -34.44)" clip-path="url(#CLIPPATH_39)"  >
<clipPath id="CLIPPATH_39" >
	<rect transform="matrix(1 0 0 1 -35.21 34.48)" id="clip-path" x="-127.99" y="-127.99" rx="0" ry="0" width="255.98" height="255.98" />
</clipPath>
<path style="stroke: none; stroke-width: 1; stroke-dasharray: none; stroke-linecap: butt; stroke-dashoffset: 0; stroke-linejoin: miter; stroke-miterlimit: 4; fill: rgb(0,184,227); fill-rule: nonzero; opacity: 1;" vector-effect="non-scaling-stroke"  transform=" translate(-163.22, -93.53)" d="M 188.1 128.06 L 167.82 128.06 C 167.81903550977447 127.7569332145455 167.73610660650002 127.45977131114535 167.57999999999998 127.2 L 138.57999999999998 76.93 C 138.2646405874581 76.39644817108424 138.2646405874581 75.73355182891576 138.57999999999998 75.2 L 147.57999999999998 59.550000000000004 C 147.74292656634242 59.322600056375215 147.95479626243187 59.1346511324249 148.2 59 Z" stroke-linecap="round" />
</g>
		<g transform="matrix(1 0 0 1 40.27 -34.57)" clip-path="url(#CLIPPATH_40)"  >
<clipPath id="CLIPPATH_40" >
	<rect transform="matrix(1 0 0 1 -45.14 34.61)" id="clip-path" x="-127.99" y="-127.99" rx="0" ry="0" width="255.98" height="255.98" />
</clipPath>
<path style="stroke: none; stroke-width: 1; stroke-dasharray: none; stroke-linecap: butt; stroke-dashoffset: 0; stroke-linejoin: miter; stroke-miterlimit: 4; fill: rgb(51,198,233); fill-rule: nonzero; opacity: 1;" vector-effect="non-scaling-stroke"  transform=" translate(-173.15, -93.4)" d="M 198.1 110.73 L 198.1 110.73 L 188.1 128.04 L 148.2 59 C 148.4668028923657 58.85327889777354 148.7655457874333 58.774300891031544 149.07 58.77 L 167.07 58.77 C 167.65883484014665 58.76922790588882 168.20664368445705 59.07146726826697 168.51999999999998 59.57 Z" stroke-linecap="round" />
</g>
</g>
</g>
<g transform="matrix(5.16 0 0 5.16 893.58 928.65)" id="Mail"  >
<path style="stroke: rgb(0,0,0); stroke-width: 0; stroke-dasharray: none; stroke-linecap: butt; stroke-dashoffset: 0; stroke-linejoin: miter; stroke-miterlimit: 4; fill: rgb(50,118,195); fill-rule: nonzero; opacity: 1;" vector-effect="non-scaling-stroke"  transform=" translate(-32, -32)" d="M 58.0034485 8 L 5.9965506 8 C 2.6828711 8 -0.003448900000000421 10.6862001 -0.003448900000000421 14 L -0.003448900000000421 50 C -0.003448900000000421 53.3137016 2.6828714 56 5.9965506 56 L 58.0034476 56 C 61.3171492 56 64.0034476 53.3137016 64.0034476 50 L 64.0034476 14 C 64.0034485 10.6862001 61.3171501 8 58.0034485 8 z M 62.0034485 49.1108017 L 43.084549 30.1919994 L 62.003448500000005 18.1364002 L 62.003448500000005 49.1108017 z M 5.9965506 10 L 58.0034476 10 C 60.2090483 10 62.0034476 11.794300100000001 62.0034476 14 L 62.0034476 15.7664003 L 34.4677505 33.3134003 C 32.9775505 34.2626992 31.0742492 34.2333985 29.6181507 33.243099199999996 L 1.9965508 14.4694996 L 1.9965508 14 C 1.9965508 11.7943001 3.7910507 10 5.9965506 10 z M 1.9965508 16.8852005 L 21.182251 29.9251003 L 1.9965508 49.1108017 L 1.9965508 16.8852005 z M 58.0034485 54 L 5.9965506 54 C 4.3491507 54 2.9326508 52.9978981 2.3204508 51.572101599999996 L 22.8403521 31.052099199999997 L 28.495150600000002 34.8955002 C 29.581051900000002 35.6338005 30.836951300000003 36.0038986 32.0947504 36.0038986 C 33.290051500000004 36.0038986 34.4872522 35.669899 35.5410509 34.9990005 L 41.3834505 31.275999000000002 L 61.6795511 51.5721015 C 61.0673485 52.9978981 59.6508713 54 58.0034485 54 z" stroke-linecap="round" />
</g>
</svg>