{
  "node": "n8n-nodes-base.keycloak-verif-email",
  "nodeVersion": "1.0",
  "codexVersion": "1.0",
  "categories": ["Miscellaneous"],
  "resources": {
    "credentialDocumentation": [
      {
        "url": "https://gitlab.com/n8n-nodes/keycloak/-/blob/master/README-CREDENRIAL.md?ref_type=heads"
      }
    ],
    "primaryDocumentation": [
      {
        "url": "https://gitlab.com/n8n-nodes/keycloak/-/blob/master/README.md?ref_type=heads"
      }
    ]
  }
}